 <svg height="256" width="256" viewport-fill="red">
  <rect width="256" height="256" style="fill:rgb(256,256,256);stroke-width:0" />
  <line x1="128" y1="0" x2="128" y2="256" style="stroke:rgb(0,0,0);stroke-width:20" />
</svg> 
